<?xml version="1.0" encoding="UTF-8"?>
<svg version="1.1" viewBox="0 0 28.747 28.747" xmlns="http://www.w3.org/2000/svg" xmlns:osb="http://www.openswatchbook.org/uri/2009/osb" xmlns:xlink="http://www.w3.org/1999/xlink">
    <defs>
        <filter id="filter6206-7" color-interpolation-filters="sRGB">
            <feGaussianBlur stdDeviation="0.658125"/>
        </filter>
    </defs>
    <g transform="translate(0 -1093.8)">
        <path transform="matrix(1.0781 0 0 1.0641 -.093733 2.7509)" d="m4.4177 1028.2v1.6051h-1.6052v18.192h1.6052v2.1402h18.192v-2.1402h2.1402v-18.192h-2.1402v-1.6051z" fill="#1a237e" filter="url(#filter6206-7)" opacity=".2"/>
        <rect x="2.9987" y="1096.8" width="22.749" height="22.749" rx="1.1973" ry="1.1974" fill="#673ab7"/>
        <g transform="translate(-22.32 1056.5)">
            <path d="m0 0h51.2v51.2h-51.2z" fill="none" stroke-width="1.0667"/>
            <g transform="matrix(.33601 0 0 .33601 1.5296 73.043)">
                <path d="m0 0h51.2v51.2h-51.2z" fill="none" stroke-width="1.0667"/>
            </g>
            <g transform="matrix(.37187 0 0 .37187 38.802 63.239)">
                <path d="m0 0h51.2v51.2h-51.2z" fill="none" stroke-width="1.0667"/>
                <g transform="matrix(2.6891 0 0 2.6891 -82.906 -48.45)">
                    <path d="m0 0h51.2v51.2h-51.2z" fill="none" stroke-width="1.0667"/>
                </g>
            </g>
        </g>
        <path d="m4.1958 1096.8c-0.66332 0-1.1979 0.5346-1.1979 1.1979v0.3334c0-0.6634 0.53459-1.1979 1.1979-1.1979h20.354c0.66332 0 1.1979 0.5345 1.1979 1.1979v-0.3334c0-0.6633-0.5346-1.1979-1.1979-1.1979z" fill="#fff" opacity=".2"/>
        <rect x="128" y="546.52" width="42.667" height="42.667" fill="none" stroke-width="1.0667"/>
        <rect x="128" y="631.85" width="42.667" height="42.667" fill="none" stroke-width="1.0667"/>
        <rect x="128" y="674.52" width="42.667" height="42.667" fill="none" stroke-width="1.0667"/>
        <rect x="128" y="589.19" width="42.667" height="42.667" fill="none" stroke-width="1.0667"/>
        <rect x="128" y="717.19" width="42.667" height="42.667" fill="none" stroke-width="1.0667"/>
        <rect x="213.33" y="546.52" width="42.667" height="42.667" fill="none" stroke-width="1.0667"/>
        <rect x="213.33" y="631.85" width="42.667" height="42.667" fill="none" stroke-width="1.0667"/>
        <rect x="213.33" y="674.52" width="42.667" height="42.667" fill="none" stroke-width="1.0667"/>
        <rect x="213.33" y="589.19" width="42.667" height="42.667" fill="none" stroke-width="1.0667"/>
        <rect x="213.33" y="717.19" width="42.667" height="42.667" fill="none" stroke-width="1.0667"/>
        <rect x="298.67" y="546.52" width="42.667" height="42.667" fill="none" stroke-width="1.0667"/>
        <rect x="298.67" y="631.85" width="42.667" height="42.667" fill="none" stroke-width="1.0667"/>
        <rect x="298.67" y="674.52" width="42.667" height="42.667" fill="none" stroke-width="1.0667"/>
        <rect x="298.67" y="589.19" width="42.667" height="42.667" fill="none" stroke-width="1.0667"/>
        <rect x="298.67" y="717.19" width="42.667" height="42.667" fill="none" stroke-width="1.0667"/>
        <rect x="170.67" y="546.52" width="42.667" height="42.667" fill="none" stroke-width="1.0667"/>
        <rect x="170.67" y="631.85" width="42.667" height="42.667" fill="none" stroke-width="1.0667"/>
        <rect x="170.67" y="674.52" width="42.667" height="42.667" fill="none" stroke-width="1.0667"/>
        <rect x="170.67" y="589.19" width="42.667" height="42.667" fill="none" stroke-width="1.0667"/>
        <rect x="170.67" y="717.19" width="42.667" height="42.667" fill="none" stroke-width="1.0667"/>
        <rect x="256" y="546.52" width="42.667" height="42.667" fill="none" stroke-width="1.0667"/>
        <rect x="256" y="631.85" width="42.667" height="42.667" fill="none" stroke-width="1.0667"/>
        <rect x="256" y="674.52" width="42.667" height="42.667" fill="none" stroke-width="1.0667"/>
        <rect x="256" y="589.19" width="42.667" height="42.667" fill="none" stroke-width="1.0667"/>
        <rect x="256" y="717.19" width="42.667" height="42.667" fill="none" stroke-width="1.0667"/>
        <rect x="128" y="759.85" width="42.667" height="42.667" fill="none" stroke-width="1.0667"/>
        <rect x="213.33" y="759.85" width="42.667" height="42.667" fill="none" stroke-width="1.0667"/>
        <rect x="298.67" y="759.85" width="42.667" height="42.667" fill="none" stroke-width="1.0667"/>
        <rect x="170.67" y="759.85" width="42.667" height="42.667" fill="none" stroke-width="1.0667"/>
        <rect x="256" y="759.85" width="42.667" height="42.667" fill="none" stroke-width="1.0667"/>
        <rect x="341.33" y="589.19" width="42.667" height="42.667" fill="none" stroke-width="1.0667"/>
        <rect x="341.33" y="631.85" width="42.667" height="42.667" fill="none" stroke-width="1.0667"/>
        <rect x="341.33" y="717.19" width="42.667" height="42.667" fill="none" stroke-width="1.0667"/>
        <rect x="341.33" y="546.52" width="42.667" height="42.667" fill="none" stroke-width="1.0667"/>
        <rect x="341.33" y="674.52" width="42.667" height="42.667" fill="none" stroke-width="1.0667"/>
        <rect x="341.33" y="759.85" width="42.667" height="42.667" fill="none" stroke-width="1.0667"/>
        <rect x="160" y="578.52" width="192" height="192" fill="none" stroke-width="1.0667"/>
        <g transform="matrix(.37344 0 0 .37344 4.7333 1097.4)">
            <path d="m0 0h51.2v51.2h-51.2z" fill="none" stroke-width="1.0667"/>
        </g>
        <g transform="matrix(.36471 0 0 .36471 5.1356 1097.4)">
            <path d="m0 0h51.2v51.2h-51.2z" fill="none" stroke-width="1.0667"/>
        </g>
        <g transform="matrix(.41585 0 0 .41585 84.325 1055.9)">
            <g transform="matrix(.062269 0 0 .062269 -28.238 185.29)">
                <g transform="matrix(38.618 0 0 38.618 14724 -13542)">
                    <g transform="matrix(.71436 0 0 .71436 -400.52 188.34)">
                        <path d="m1293.2-120.67c-181.75 0.2763-511.18 0.13525-699.05 0.13998-2.3216 10.413-3.593 21.251-3.593 32.384v114c207.65 0.73695 494.72 0.38136 706.23 0.3733v-114.37c0-11.18-1.2522-22.07-3.593-32.523zm-458.69 295.56c-78.385-4e-3 -158.85 0.17892-243.95 0.55995v138.63c286.34-0.39317 421.73-0.13827 706.23-0.32664v-137.75c-163.2-0.53005-311.22-1.1113-462.28-1.1199z" opacity="0" stroke-width="1.4932"/>
                    </g>
                </g>
            </g>
        </g>
        <path d="m24.549 1119.5c0.66325 0 1.1979-0.5346 1.1979-1.1979v-0.3333c0 0.6632-0.53461 1.1978-1.1979 1.1978h-20.354c-0.66325 0-1.1979-0.5346-1.1979-1.1978v0.3333c0 0.6633 0.53461 1.1979 1.1979 1.1979z" fill="#1a237e" opacity=".2"/>
    </g>
    <g>
        <g transform="matrix(.33309 0 0 .33309 18.004 3.8545)" fill="#fff">
            <path d="m-16.898 13.581-3.6648 3.999h-6.3386c-2.21 0-3.999 1.789-3.999 3.999v24c0 2.21 1.789 3.999 3.999 3.999h31.998c2.21 0 4.0049-1.789 4.0049-3.999v-24c0-2.21-1.7949-3.999-4.0049-3.999h-6.3386l-3.6589-3.999zm6.3445 10.349c2.9615 0 5.6048 1.3591 7.3706 3.4713 0.10117-0.01646 0.20242-0.02586 0.30491-0.02932 0.025834-4.15e-4 0.056261-4.15e-4 0.082092 0 1.3289 0.0012 2.4043 1.0807 2.4041 2.41-0.001039 0.65356-0.31274 1.2544-0.77986 1.7063 0.14659 0.66562 0.24041 1.3533 0.24041 2.064 0 2.122-0.70848 4.0725-1.8764 5.6643 0.14269 0.31394 0.235 0.65125 0.23455 0.99682 2.311e-4 1.3302-1.0798 2.4102-2.41 2.41-0.48906-3.68e-4 -0.95316-0.17469-1.3545-0.4515-1.2746 0.62534-2.702 1.0027-4.216 1.0027-3.666 0-6.8435-2.0767-8.4671-5.1014-1.2399-0.10541-2.2222-1.1135-2.2223-2.3689 5.13e-4 -0.78442 0.44405-1.4737 1.0789-1.9233v-0.0059c-0.0017-0.06423-0.01173-0.13594-0.01173-0.22282 0-5.304 4.3182-9.6223 9.6223-9.6223zm0 1.7181c-4.3264 0-7.8066 3.4509-7.8866 7.7576 0.70262 0.12898 1.3081 0.54362 1.6594 1.1669l5.7464-0.53946c0.30681-1.0088 1.2106-1.7291 2.2751-1.7298 0.39919 8.22e-4 0.78163 0.12745 1.1317 0.31664l2.5507-2.1168c-0.074571-0.23397-0.13404-0.47521-0.13486-0.72123-2.612e-4 -0.54224 0.22984-1.0421 0.56291-1.4659-1.4464-1.63-3.5468-2.668-5.9047-2.668zm6.5556 6.1862-2.5096 2.0875c0.090342 0.25643 0.15807 0.51915 0.15832 0.79159 4.383e-4 0.47188-0.17599 0.92058-0.43391 1.3135l1.2783 1.8471c0.17134-0.03777 0.34619-0.07059 0.52186-0.07036 0.32419-2.7e-5 0.63486 0.09073 0.93232 0.21696 0.87598-1.2731 1.4014-2.8014 1.4014-4.4681 0-0.46491-0.057093-0.91622-0.13486-1.3604-0.00649 5.9e-5 -0.011099-7e-6 -0.01759 0-0.42528-4.41e-4 -0.82975-0.14481-1.1962-0.35768zm-6.9074 3.9111-5.635 0.52773c-0.12777 0.49891-0.41672 0.92945-0.81505 1.2548 1.3707 2.342 3.8848 3.9286 6.8018 3.9286 1.1586 0 2.2464-0.27511 3.2367-0.72123-0.038695-0.17246-0.076079-0.3448-0.076229-0.52186 1.321e-4 -0.49615 0.19139-0.96178 0.47496-1.3662l-1.2548-1.8119c-0.1933 0.04939-0.38655 0.09342-0.58636 0.09382-0.92746-3.49e-4 -1.7456-0.5557-2.1461-1.3838z" fill="#fff"/>
        </g>
        <g transform="matrix(.45968 0 0 .45968 30.231 -471.26)" fill="#0f57ff" stroke="#d20000" stroke-width=".21754">
            <g transform="matrix(1.0217 0 0 1.0217 -.46502 -22.573)" fill="#0f57ff" stroke="#d20000" stroke-width=".21292"></g>
        </g>
    </g>
    <g display="none" fill="none">
        <rect transform="rotate(90)" x="7.8232" y="-20.923" width="13.1" height="13.1" display="inline" stroke="#000" stroke-width=".070382"/>
        <rect x="7.2241" y="8.6528" width="14.298" height="11.441" stroke="#5261ff" stroke-linecap="round" stroke-linejoin="round" stroke-width=".06959"/>
        <rect transform="rotate(90)" x="7.2241" y="-20.094" width="14.298" height="11.441" display="inline" stroke="#0f0" stroke-linecap="round" stroke-linejoin="round" stroke-width=".06959"/>
    </g>
</svg>
